…
```r
result <- rnorm(n = 10000, mean = 64, sd = 6)

height_data <- tibble(result)

height_data %>%
    group_by(result) %>%
    summarize(n=n()) %>%
    mutate(p = n / sum(n))
```

```
## # A tibble: 10,000 x 3
##    result     n      p
##     <dbl> <int>  <dbl>
##  1   41.1     1 0.0001
##  2   43.1     1 0.0001
##  3   43.2     1 0.0001
##  4   43.5     1 0.0001
##  5   44.0     1 0.0001
##  6   44.4     1 0.0001
##  7   44.5     1 0.0001
##  8   44.9     1 0.0001
##  9   44.9     1 0.0001
## 10   45.3     1 0.0001
## # … with 9,990 more rows
```
…
