…
We can use R to permute Kobe's shot history and thereby model how Kobe's shots *might* have gone if the null hypothesis were true.  To do this, we need to `specify` the relevant variables as well as the `hypothesis`.  Let's see that all at once, then unpack it:


```r
kobe %>%
    specify(shot ~ prev_shot, success = "H") %>%
    hypothesize(null = "independence") %>%
    generate(reps = 1, type = "permute")
```

```{.Rout .text-muted}
## Response: shot (factor)
## Explanatory: prev_shot (factor)
## Null Hypothesis: independence
## # A tibble: 111 × 3
## # Groups:   replicate [1]
##    shot  prev_shot replicate
##    <fct> <fct>         <int>
##  1 M     prev_H            1
##  2 M     prev_M            1
##  3 H     prev_M            1
##  4 M     prev_H            1
##  5 M     prev_H            1
##  6 M     prev_M            1
##  7 H     prev_M            1
##  8 M     prev_M            1
##  9 M     prev_H            1
## 10 M     prev_H            1
## # … with 101 more rows
```
…
