…
#### A single resample

As we've seen, "resampling" treats the original data as if it were a whole population.  By *sampling with replacement* from that imaginary population, we can simulate what a new sample from that same population might look like.  The following chunk of code resamples from Kobe's shots to produce a new sample of shots:


```r
kobe %>%
    specify(response = shot, success = "H") %>%
    generate(reps = 1, type = "bootstrap")
```

```{.Rout .text-muted}
## Response: shot (factor)
## # A tibble: 111 × 2
## # Groups:   replicate [1]
##    replicate shot 
##        <int> <fct>
##  1         1 M    
##  2         1 M    
##  3         1 H    
##  4         1 M    
##  5         1 M    
##  6         1 M    
##  7         1 H    
##  8         1 M    
##  9         1 M    
## 10         1 M    
## # … with 101 more rows
```
…
