…
```r
many_samples_size10 <- population %>%
    rep_slice_sample(n = 10, reps = 1000)
```

What we just did was use the `rep_slice_sample` function to `rep`eatedly sample groups of 10 women from our population^[Compare this line of code with the line we used to get a single sample of size 10, above.  What is similar and what is different?].  Specifically, we got `reps = 1000` samples of size 10, and we told R to remember these samples under the name "many_samples_size10".  Let's have a look at what the resulting simulated data look like:


```r
many_samples_size10
```

```
## # A tibble: 10,000 × 2
## # Groups:   replicate [1,000]
##    replicate height
##        <int>  <dbl>
##  1         1   65.3
##  2         1   72.3
##  3         1   69.6
##  4         1   67.1
##  5         1   69.0
##  6         1   70.4
##  7         1   67.6
##  8         1   54.5
##  9         1   56.2
## 10         1   55.1
## # … with 9,990 more rows
```

So there are two columns, one column is "height", representing the height in inches of each simulated woman in our samples.  The other column is "replicate" which tells us *which sample* (of the 1000 samples we made) the woman is in.  This column will let us group the women into their respective samples.

Now we can get the mean height for each sample:


```r
many_samples_size10 %>%
    group_by(replicate) %>%
    summarize(M = mean(height))
```

```
## # A tibble: 1,000 × 2
##    replicate     M
##        <int> <dbl>
##  1         1  64.7
##  2         2  67.3
##  3         3  62.5
##  4         4  60.8
##  5         5  63.0
##  6         6  64.6
##  7         7  62.2
##  8         8  66.1
##  9         9  64.1
## 10        10  60.6
## # … with 990 more rows
```
…
