…
We can construct the distribution of sample means using **bootstrapping**.  Run the following code to build this sampling distribution and save it under the name `boot_dist_mental_health`.


```r
boot_dist_mental_health <- nhanes %>%
    specify(response = DaysMentHlthBad) %>%
    generate(reps = 1000, type = "bootstrap") %>%
    calculate(stat = "mean")

boot_dist_mental_health
```

```{.Rout .text-muted}
## Response: DaysMentHlthBad (numeric)
## # A tibble: 1,000 × 2
##    replicate  stat
##        <int> <dbl>
##  1         1  4.49
##  2         2  4.45
##  3         3  4.42
##  4         4  4.69
##  5         5  4.33
##  6         6  4.38
##  7         7  4.38
##  8         8  4.35
##  9         9  4.33
## 10        10  4.62
## # … with 990 more rows
## # ℹ Use `print(n = ...)` to see more rows
```
…
```r
null_dist_mental_health <- nhanes %>%
    specify(response = DaysMentHlthBad) %>%
    hypothesize(null = "point", mu = 4) %>%
    generate(reps = 1000, type = "bootstrap") %>%
    calculate(stat = "mean")

null_dist_mental_health
```

```{.Rout .text-muted}
## Response: DaysMentHlthBad (numeric)
## Null Hypothesis: point
## # A tibble: 1,000 × 2
##    replicate  stat
##        <int> <dbl>
##  1         1  3.93
##  2         2  4.16
##  3         3  4.14
##  4         4  4.02
##  5         5  3.91
##  6         6  3.93
##  7         7  4.23
##  8         8  4.13
##  9         9  4.07
## 10        10  3.95
## # … with 990 more rows
## # ℹ Use `print(n = ...)` to see more rows
```
…
