…
A player's "batting average" is the *proportion* of times they made a hit while at bat.  For example, if a player had 400 at bats that season and had a hit 100 of those times, their batting average would be $100 / 400 = 0.25$.  Note that it is conventional in baseball stats to multiply that average by 1000 to get a number between 0 and 1000 instead of one between 0 and 1, but we'll just keep things simple and stick with using a standard proportion between 0 and 1.

If we were interested in studying the batting performance of just one player, we could use our old friend the *binomial* distribution.  After all, we have a number of repeated events (at-bats) each of which can have an outcome of interest (a hit).  But we are interested today in comparing different players, not studying the performance of a specific one.

In particular, we'd like to find the batting averages for every player in our dataset.  We have the relevant numbers already in our dataset in the H and AB columns.  Specifically, the batting average for each player is `H / AB`, the number of hits made divided by the number of opportunities (at-bats).  While we could do this by hand for each player, that would be pretty annoying.  Instead, we can use R to do that work using `mutate`:


```r
batting %>%
    mutate(AVG = H / AB)
```

```
## # A tibble: 984 x 15
##    Name      Team  Group Position Games_Played    AB     R     H Doubles Triples
##    <chr>     <chr> <chr> <chr>           <dbl> <dbl> <dbl> <dbl>   <dbl>   <dbl>
##  1 Allard, K ATL   Batt… P                   3     1     1     1       0       0
##  2 Gibson, K MIN   Batt… P                   1     2     2     2       0       0
##  3 Law, D    SF    Batt… P                   7     1     1     1       0       0
##  4 Nuno, V   TB    Batt… P                   1     2     0     2       0       0
##  5 Romero, E KC    Batt… P                   4     1     1     1       1       0
##  6 Rosario,… CHC   Batt… P                  43     1     1     1       0       0
##  7 Sobotka,… ATL   Batt… P                  14     1     0     1       0       0
##  8 Jennings… MIL   Batt… P                  65     3     1     2       1       0
##  9 Lavarnwa… PIT   Batt… C                   6     6     1     4       1       0
## 10 Bergman,… SEA   Batt… P                   1     2     0     1       0       0
## # … with 974 more rows, and 5 more variables: HR <dbl>, RBI <dbl>, Walks <dbl>,
## #   Strike_Outs <dbl>, AVG <dbl>
```

As usual, the first line told R what data we were working with (`batting`).  The second line `mutate`d two of the variables `H` and `AB` into `AVG`, each player's batting average.  Let's spend a bit of time on that `mutate` line, because it is extremely useful.

#### Making new variables with `mutate`

First, note that "AVG" is just the name that we decided.  We could replace "AVG" with a more descriptive name like "Batting_Average":


```r
batting %>%
    mutate(Batting_Average = H / AB)
```

```
## # A tibble: 984 x 15
##    Name      Team  Group Position Games_Played    AB     R     H Doubles Triples
##    <chr>     <chr> <chr> <chr>           <dbl> <dbl> <dbl> <dbl>   <dbl>   <dbl>
##  1 Allard, K ATL   Batt… P                   3     1     1     1       0       0
##  2 Gibson, K MIN   Batt… P                   1     2     2     2       0       0
##  3 Law, D    SF    Batt… P                   7     1     1     1       0       0
##  4 Nuno, V   TB    Batt… P                   1     2     0     2       0       0
##  5 Romero, E KC    Batt… P                   4     1     1     1       1       0
##  6 Rosario,… CHC   Batt… P                  43     1     1     1       0       0
##  7 Sobotka,… ATL   Batt… P                  14     1     0     1       0       0
##  8 Jennings… MIL   Batt… P                  65     3     1     2       1       0
##  9 Lavarnwa… PIT   Batt… C                   6     6     1     4       1       0
## 10 Bergman,… SEA   Batt… P                   1     2     0     1       0       0
## # … with 974 more rows, and 5 more variables: HR <dbl>, RBI <dbl>, Walks <dbl>,
## #   Strike_Outs <dbl>, Batting_Average <dbl>
```

Now the new column is called "Batting_Average" instead of "AVG".

We can use this to make some more variables as well.  Try using `mutate` to create a new variable called `Total_Bases` which will count the total number of bases earned by a player.  This number is equal to `H + Doubles + 2 * Triples + 3 * HR`.  After filling in the blank below, the result should look like the following:


```r
batting %>%
    mutate(Total_Bases = ___)
```


```
## # A tibble: 984 x 15
##    Name      Team  Group Position Games_Played    AB     R     H Doubles Triples
##    <chr>     <chr> <chr> <chr>           <dbl> <dbl> <dbl> <dbl>   <dbl>   <dbl>
##  1 Allard, K ATL   Batt… P                   3     1     1     1       0       0
##  2 Gibson, K MIN   Batt… P                   1     2     2     2       0       0
##  3 Law, D    SF    Batt… P                   7     1     1     1       0       0
##  4 Nuno, V   TB    Batt… P                   1     2     0     2       0       0
##  5 Romero, E KC    Batt… P                   4     1     1     1       1       0
##  6 Rosario,… CHC   Batt… P                  43     1     1     1       0       0
##  7 Sobotka,… ATL   Batt… P                  14     1     0     1       0       0
##  8 Jennings… MIL   Batt… P                  65     3     1     2       1       0
##  9 Lavarnwa… PIT   Batt… C                   6     6     1     4       1       0
## 10 Bergman,… SEA   Batt… P                   1     2     0     1       0       0
## # … with 974 more rows, and 5 more variables: HR <dbl>, RBI <dbl>, Walks <dbl>,
## #   Strike_Outs <dbl>, Total_Bases <dbl>
```
…
To compare just infielders to outfielders we need to **filter** our data so that it only contains players from those two groups.

### Filtering data with `filter`

R makes it easy to filter out data we don't need from a particular analysis.  The code for this is, helpfully, called `filter`.  Let's see it in operation:


```r
batting %>%
    filter(Group != "Battery")
```

```
## # A tibble: 511 x 15
##    Name     Team  Group  Position Games_Played    AB     R     H Doubles Triples
##    <chr>    <chr> <chr>  <chr>           <dbl> <dbl> <dbl> <dbl>   <dbl>   <dbl>
##  1 Vincej,… SEA   Infie… SS                  1     4     0     2       0       0
##  2 Zagunis… CHC   Outfi… RF                  5     5     0     2       1       0
##  3 Jones, R SF    Infie… 3B                  5     8     2     3       0       0
##  4 Betts, M BOS   Outfi… RF                136   520   129   180      47       5
##  5 Lagares… NYM   Outfi… CF                 30    59     9    20       1       1
##  6 Kang, J  PIT   Infie… 3B                  3     6     0     2       0       0
##  7 Straw, M HOU   Outfi… CF                  9     9     4     3       0       0
##  8 Martine… BOS   Outfi… LF                150   569   111   188      37       2
##  9 McNeil,… NYM   Infie… 2B                 63   225    35    74      11       6
## 10 Yelich,… MIL   Outfi… LF                147   574   118   187      34       7
## # … with 501 more rows, and 5 more variables: HR <dbl>, RBI <dbl>, Walks <dbl>,
## #   Strike_Outs <dbl>, AVG <dbl>
```

The second line `filters` the data according to the criteria in the parentheses.  The `!=` symbol means "not equal", so `Group != "Battery"` can be read as "group is not equal to battery (pitcher or catcher)".  The result of the filtering operation is a subset of the original data that excludes players with battery positions, i.e., pitchers and catchers.

We could also filter out designated hitters using a similar chunk of code.


```r
batting %>%
    filter(___)
```


```
## # A tibble: 978 x 15
##    Name      Team  Group Position Games_Played    AB     R     H Doubles Triples
##    <chr>     <chr> <chr> <chr>           <dbl> <dbl> <dbl> <dbl>   <dbl>   <dbl>
##  1 Allard, K ATL   Batt… P                   3     1     1     1       0       0
##  2 Gibson, K MIN   Batt… P                   1     2     2     2       0       0
##  3 Law, D    SF    Batt… P                   7     1     1     1       0       0
##  4 Nuno, V   TB    Batt… P                   1     2     0     2       0       0
##  5 Romero, E KC    Batt… P                   4     1     1     1       1       0
##  6 Rosario,… CHC   Batt… P                  43     1     1     1       0       0
##  7 Sobotka,… ATL   Batt… P                  14     1     0     1       0       0
##  8 Jennings… MIL   Batt… P                  65     3     1     2       1       0
##  9 Lavarnwa… PIT   Batt… C                   6     6     1     4       1       0
## 10 Bergman,… SEA   Batt… P                   1     2     0     1       0       0
## # … with 968 more rows, and 5 more variables: HR <dbl>, RBI <dbl>, Walks <dbl>,
## #   Strike_Outs <dbl>, AVG <dbl>
```

\BeginKnitrBlock{exercise}<div class="exercise"><span class="exercise" id="exr:ex1004"><strong>(\#exr:ex1004) </strong></span>
What code would filter out designated hitters?  *Hint: what is the abbreviation for designated hitters?*
</div>\EndKnitrBlock{exercise}

Finally, we can combine filters just by listing them.  The following bit of code filters out both pitchers and catchers, so the resulting data includes only infield and outfield players.


```r
batting %>%
    filter(Group != "Battery", Group != "DH")
```

```
## # A tibble: 505 x 15
##    Name     Team  Group  Position Games_Played    AB     R     H Doubles Triples
##    <chr>    <chr> <chr>  <chr>           <dbl> <dbl> <dbl> <dbl>   <dbl>   <dbl>
##  1 Vincej,… SEA   Infie… SS                  1     4     0     2       0       0
##  2 Zagunis… CHC   Outfi… RF                  5     5     0     2       1       0
##  3 Jones, R SF    Infie… 3B                  5     8     2     3       0       0
##  4 Betts, M BOS   Outfi… RF                136   520   129   180      47       5
##  5 Lagares… NYM   Outfi… CF                 30    59     9    20       1       1
##  6 Kang, J  PIT   Infie… 3B                  3     6     0     2       0       0
##  7 Straw, M HOU   Outfi… CF                  9     9     4     3       0       0
##  8 Martine… BOS   Outfi… LF                150   569   111   188      37       2
##  9 McNeil,… NYM   Infie… 2B                 63   225    35    74      11       6
## 10 Yelich,… MIL   Outfi… LF                147   574   118   187      34       7
## # … with 495 more rows, and 5 more variables: HR <dbl>, RBI <dbl>, Walks <dbl>,
## #   Strike_Outs <dbl>, AVG <dbl>
```
…
