…
```{.Rout .text-info}
## 
## ℹ Use `spec()` to retrieve the full column specification for this data.
## ℹ Specify the column types or set `show_col_types = FALSE` to quiet this message.
```

```r
lullaby
```

```{.Rout .text-muted}
## # A tibble: 32 × 3
##       id Before After
##    <dbl>  <dbl> <dbl>
##  1   101  0.437 0.603
##  2   102  0.413 0.683
##  3   103  0.754 0.724
##  4   104  0.439 0.282
##  5   105  0.475 0.499
##  6   106  0.871 0.951
##  7   107  0.237 0.418
##  8   108  0.759 0.938
##  9   109  0.416 0.5  
## 10   110  0.800 0.586
## # … with 22 more rows
```
…
:::

### Examine the distribution of differences

Our **research question** is whether hearing the two people sing affected infant's viewing preferences.  As a result, we are interested in the **difference** between `After` and `Before`.  To find this for each infant, we will use R's `mutate` function:


```r
lullaby %>%
    mutate(diff = After - Before)
```

```{.Rout .text-muted}
## # A tibble: 32 × 4
##       id Before After    diff
##    <dbl>  <dbl> <dbl>   <dbl>
##  1   101  0.437 0.603  0.166 
##  2   102  0.413 0.683  0.270 
##  3   103  0.754 0.724 -0.0304
##  4   104  0.439 0.282 -0.157 
##  5   105  0.475 0.499  0.0239
##  6   106  0.871 0.951  0.0800
##  7   107  0.237 0.418  0.181 
##  8   108  0.759 0.938  0.179 
##  9   109  0.416 0.5    0.0837
## 10   110  0.800 0.586 -0.213 
## # … with 22 more rows
```
…
