…
```{.Rout .text-info}
## 
## ℹ Use `spec()` to retrieve the full column specification for this data.
## ℹ Specify the column types or set `show_col_types = FALSE` to quiet this message.
```

```r
tetris_data
```

```{.Rout .text-muted}
## # A tibble: 72 × 3
##    condition         intrusions_pre intrusions_post
##    <chr>                      <dbl>           <dbl>
##  1 No task (control)              2               4
##  2 No task (control)              2               3
##  3 No task (control)              5               6
##  4 No task (control)              0               2
##  5 No task (control)              5               3
##  6 No task (control)              4               4
##  7 No task (control)              0               0
##  8 No task (control)              4               4
##  9 No task (control)              3               2
## 10 No task (control)              5              11
## # … with 62 more rows
```
…
