B Hypothesis Tests | Labs
…
## Rows: 30 Columns: 2

## ── Column specification ────────────────────────────────────────────────────────
## Delimiter: ","
## dbl (2): X, Y

## 
## ℹ Use `spec()` to retrieve the full column specification for this data.
## ℹ Specify the column types or set `show_col_types = FALSE` to quiet this message.

This is what the data look like:

my_data

## # A tibble: 30 × 2
##        X      Y
##    <dbl>  <dbl>
##  1 -1.85 -2.02 
##  2 -1.78 -3.82 
##  3 -1.53 -4.28 
##  4 -1.53 -0.400
##  5 -1.33 -2.72 
##  6 -1.03 -0.768
##  7 -0.96 -0.861
##  8 -0.84 -1.61 
##  9 -0.63 -0.529
## 10 -0.59 -0.806
## # … with 20 more rows
…
