Lab 1 Exploring Data with R | Labs
…
PROVIDE YOUR WRITTEN RESPONSE HERE

1.5 Histograms

So far, we have been summarizing categorical variables. There are also some numerical variables in our data, including the age of each passenger. Let’s try running the chunk of code below to make a frequency table to figure out how many people of different ages sailed on the Titanic:

titanic %>%
  group_by(age) %>%
  summarize(n = n())

## # A tibble: 99 × 2
##      age     n
##    <dbl> <int>
##  1 0.167     1
##  2 0.333     1
##  3 0.417     1
##  4 0.667     1
##  5 0.75      3
##  6 0.833     3
##  7 0.917     2
##  8 1        10
##  9 2        12
## 10 3         7
## # … with 89 more rows
…
