Lab 4 Probability and simulation | Labs
…
4.1.4 Turning simulated results into “data”

Now that we can simulate long sequences of outcomes and get R to remember them, we are going to get R to treat those outcomes as if they were “data,” in other words, as if they were from a real coin instead of a simulated one. R keeps data in a special form called a “tibble.” We’ve seen this cutesy form of the word “table” before; every time we used R to summarize a dataset, it told us the result was a “tibble.”

We can create a “tibble” from our simulated flips like this

coin_data <- tibble(result)

We’ve told R to take our flips, turn them into a tibble, and remember the result under the label “coin_data.” Now when we ask R to remember “coin_data,” we see it looks a bit different

coin_data

## # A tibble: 50 × 1
##    result
##    <chr> 
##  1 Tails 
##  2 Tails 
##  3 Heads 
##  4 Tails 
##  5 Heads 
##  6 Tails 
##  7 Heads 
##  8 Heads 
##  9 Heads 
## 10 Tails 
## # … with 40 more rows
…
