Lab 5 Hypothesis testing with randomization | Labs
…
null_dist <- kobe %>%
    specify(shot ~ prev_shot, success = "H") %>%
    hypothesize(null = "independence") %>%
    generate(reps = 1000, type = "permute") %>%
    calculate(stat = "diff in props", order = c("H", "M"))

Now we can check out the result:

null_dist

## Response: shot (factor)
## Explanatory: prev_shot (factor)
## Null Hypothesis: independence
## # A tibble: 1,000 × 2
##    replicate    stat
##        <int>   <dbl>
##  1         1 -0.159 
##  2         2 -0.0862
##  3         3 -0.0134
##  4         4 -0.159 
##  5         5  0.0230
##  6         6  0.0230
##  7         7 -0.0134
##  8         8 -0.0862
##  9         9  0.0230
## 10        10 -0.0862
## # … with 990 more rows
…
