Lab 7 The normal distribution | Labs
…
___ %>%
    summarize(p_hat = ___)

What is the proportion of people who tried marijuana in your sample?

Would you expect to get the same proportion from another random sample from the population? Why or why not?

As we’ve seen, the great thing about computers is that they can do boring repetitive things for us very quickly. Now, we will draw 1000 samples of size 5 from the population and get R to remember them under the name samples_size5.

samples_size5 <- nhanes %>%
    rep_sample_n(size = 5, reps = 1000)

samples_size5

## # A tibble: 5,000 × 77
## # Groups:   replicate [1,000]
##    replicate    ID SurveyYr Gender   Age AgeDecade AgeMonths Race1   Race3
##        <int> <dbl> <chr>    <chr>  <dbl> <chr>         <dbl> <chr>   <chr>
##  1         1 54148 2009_10  male      34 30-39           418 Mexican <NA> 
##  2         1 60229 2009_10  male      50 50-59           605 Mexican <NA> 
##  3         1 68152 2011_12  male      56 50-59            NA Black   Black
##  4         1 57109 2009_10  female    41 40-49           500 Other   <NA> 
##  5         1 71164 2011_12  male      48 40-49            NA White   White
##  6         2 57175 2009_10  male      49 40-49           590 White   <NA> 
##  7         2 69456 2011_12  male      52 50-59            NA Black   Black
##  8         2 66289 2011_12  male      41 40-49            NA White   White
##  9         2 59541 2009_10  male      49 40-49           593 White   <NA> 
## 10         2 67261 2011_12  male      57 50-59            NA White   White
## # … with 4,990 more rows, and 68 more variables: Education <chr>,
## #   MaritalStatus <chr>, HHIncome <chr>, HHIncomeMid <dbl>, Poverty <dbl>,
## #   HomeRooms <dbl>, HomeOwn <chr>, Work <chr>, Weight <dbl>, Length <lgl>,
## #   HeadCirc <lgl>, Height <dbl>, BMI <dbl>, BMICatUnder20yrs <chr>,
## #   BMI_WHO <chr>, Pulse <dbl>, BPSysAve <dbl>, BPDiaAve <dbl>, BPSys1 <dbl>,
## #   BPDia1 <dbl>, BPSys2 <dbl>, BPDia2 <dbl>, BPSys3 <dbl>, BPDia3 <dbl>,
## #   Testosterone <dbl>, DirectChol <dbl>, TotChol <dbl>, UrineVol1 <dbl>, …

7.4.3 Summary statistics for each sample

Notice that the different samples are labeled using the variable replicate. We can use this to get the proportion of marijuana triers in each sample using the old group_by routine. We will tell R to remember these sample proportions under the name sample_props_mari_size5:

sample_props_mari_size5 <- samples_size5 %>%
    group_by(replicate) %>%
    summarize(p_hat = mean(Marijuana == "Yes"))

sample_props_mari_size5

## # A tibble: 1,000 × 2
##    replicate p_hat
##        <int> <dbl>
##  1         1   0  
##  2         2   0.8
##  3         3   0.6
##  4         4   0.8
##  5         5   0.4
##  6         6   0.8
##  7         7   0.4
##  8         8   0.8
##  9         9   1  
## 10        10   0.6
## # … with 990 more rows
…
