Lab 8 Inference for proportions | Labs
…
## Rows: 1058 Columns: 2

## ── Column specification ────────────────────────────────────────────────────────
## Delimiter: ","
## chr (2): method, detected

## 
## ℹ Use `spec()` to retrieve the full column specification for this data.
## ℹ Specify the column types or set `show_col_types = FALSE` to quiet this message.

Let’s take a quick look at the data:

colonoscopy

## # A tibble: 1,058 × 2
##    method         detected
##    <chr>          <chr>   
##  1 Routine        No      
##  2 Computer-aided No      
##  3 Computer-aided No      
##  4 Routine        No      
##  5 Routine        Yes     
##  6 Routine        No      
##  7 Computer-aided No      
##  8 Computer-aided Yes     
##  9 Routine        No      
## 10 Routine        No      
## # … with 1,048 more rows
…
