Lab 9 \(t\) tests | Labs
…
9.2.4.2 Set your alpha level

Let’s stay consistent and say that our alpha level is still 0.05.

9.2.4.3 Find the \(t\) value

Like we did above, we need to first find the difference for each infant between their looking preferences before and after hearing the people sing. We can do that in R using the mutate function, which we’ve previously used to calculate probabilities based on relative frequency.

The code below creates a new variable called Difference by subtracting the Before preference from the After preference:

lullaby %>%
    mutate(Difference = After - Before)

## # A tibble: 32 × 4
##       id Before After Difference
##    <dbl>  <dbl> <dbl>      <dbl>
##  1   101  0.437 0.603     0.166 
##  2   102  0.413 0.683     0.270 
##  3   103  0.754 0.724    -0.0304
##  4   104  0.439 0.282    -0.157 
##  5   105  0.475 0.499     0.0239
##  6   106  0.871 0.951     0.0800
##  7   107  0.237 0.418     0.181 
##  8   108  0.759 0.938     0.179 
##  9   109  0.416 0.5       0.0837
## 10   110  0.800 0.586    -0.213 
## # … with 22 more rows
…
